                          Raw     Z-wt    norm0 chi-norm
  
  1) Raw Events                9792.0      9792.0      9792.0      9792.0
 
  2) OBGfid,Trig+CohGenTh      9792.0      9792.0      9792.0      9792.0
 
  3) Pfermi \\& W2             9792.0      9792.0      9792.0      9792.0
 
  4) Focus Positive            8798.0      8798.0      8798.0      8798.0
 
  5) Fid. Vol. -X              7714.0      7714.0      7714.0      7714.0
 
  6) Fid. Vol. -Y              6454.0      6454.0      6454.0      6454.0
 
  7) Fid. Vol. -Z (OFF)        6454.0      6454.0      6454.0      6454.0
 
  8) At Least 1 Mu             6454.0      6454.0      6454.0      6454.0
 
  9) ncand=2,3,4               6454.0      6454.0      6454.0      6454.0
 
 10) tnchgd=2                  4049.0      4049.0      4049.0      4049.0
 
 11) +/- Tracks (V0)           3472.0      3472.0      3472.0      3472.0
 
 12) Tube/Veto Cut             3472.0      3472.0      3472.0      3472.0
 
 13) 2 Muons (1mux)            3472.0      3472.0      3472.0      3472.0
 
 14) PmuAsym<0.0                821.0       821.0       821.0       821.0
 
 15) Theta$<$2.62 rad           792.0       792.0       792.0       792.0
 
 16) Pt+wrt- $>$0.05            791.0       791.0       791.0       791.0
 
 17) Mee $>$ 2.0  (OFF)         791.0       791.0       791.0       791.0
 
 18) Upstream Hanger cut        774.0       774.0       774.0       774.0
 
 19) nsecond$<$4                752.0       752.0       752.0       752.0
 
 20) Fid. Vol. Hanger cut       689.0       689.0       689.0       689.0
 
 21) No Hangers fromPVert       664.0       664.0       664.0       664.0
 
 22) Pz$>$0 for tracks          664.0       664.0       664.0       664.0
 
 23) Thprimord$<$0.4            593.0       593.0       593.0       593.0
 
 24) Nunh*fracunh$<$200         588.0       588.0       588.0       588.0
 
 25) V0 Cluster Cut              31.0        31.0        31.0        31.0
 
 26) Emumu$>$2GeV                31.0        31.0        31.0        31.0
 
 27) P+,P-$>$0.5                 31.0        31.0        31.0        31.0
 
 28) P+,P-$>$1.0 (2.5mux)        31.0        31.0        31.0        31.0
 
 29) Emumu$>$5GeV  (8mux)        31.0        31.0        31.0        31.0
 
 30) Phi12$>$90deg  (OFF)        31.0        31.0        31.0        31.0
 
 ====================================================
 
