                          Raw     Z-wt    norm0 chi-norm
  
  1) Raw Events                 133.0       119.3         9.1         9.1
 
  2) OBGfid,Trig+CohGenTh       133.0       119.3         9.1         9.1
 
  3) Pfermi \\& W2              133.0       119.3         9.1         9.1
 
  4) Focus Positive             133.0       119.3         9.1         9.1
 
  5) Fid. Vol. -X               133.0       119.3         9.1         9.1
 
  6) Fid. Vol. -Y               133.0       119.3         9.1         9.1
 
  7) Fid. Vol. -Z (OFF)         133.0       119.3         9.1         9.1
 
  8) At Least 1 Mu              133.0       119.3         9.1         9.1
 
  9) ncand=2,3,4                133.0       119.3         9.1         9.1
 
 10) tnchgd=2                    33.0        29.8         2.3         2.3
 
 11) +/- Tracks (V0)             13.0        11.1         0.8         0.8
 
 12) Tube/Veto Cut               13.0        11.1         0.8         0.8
 
 13) 2 Muons (1mux)              13.0        11.1         0.8         0.8
 
 14) PmuAsym<0.0                  2.0         1.9         0.1         0.1
 
 15) Theta$<$2.62 rad             2.0         1.9         0.1         0.1
 
 16) Pt+wrt- $>$0.05              2.0         1.9         0.1         0.1
 
 17) Mee $>$ 2.0  (OFF)           2.0         1.9         0.1         0.1
 
 18) Upstream Hanger cut          2.0         1.9         0.1         0.1
 
 19) nsecond$<$4                  2.0         1.9         0.1         0.1
 
 20) Fid. Vol. Hanger cut         2.0         1.9         0.1         0.1
 
 21) No Hangers fromPVert         2.0         1.9         0.1         0.1
 
 22) Pz$>$0 for tracks            2.0         1.9         0.1         0.1
 
 23) Thprimord$<$0.4              2.0         1.9         0.1         0.1
 
 24) Nunh*fracunh$<$200           2.0         1.9         0.1         0.1
 
 25) V0 Cluster Cut               2.0         1.9         0.1         0.1
 
 26) Emumu$>$2GeV                 2.0         1.9         0.1         0.1
 
 27) P+,P-$>$0.5                  2.0         1.9         0.1         0.1
 
 28) P+,P-$>$1.0 (2.5mux)         2.0         1.9         0.1         0.1
 
 29) Emumu$>$5GeV  (8mux)         2.0         1.9         0.1         0.1
 
 30) Phi12$>$90deg  (OFF)         2.0         1.9         0.1         0.1
 
 ====================================================
 
