                          Raw     Z-wt    norm0 chi-norm
  
  1) Raw Events                  10.0         8.9         0.5         0.5
 
  2) OBGfid,Trig+CohGenTh        10.0         8.9         0.5         0.5
 
  3) Pfermi \\& W2               10.0         8.9         0.5         0.5
 
  4) Focus Positive              10.0         8.9         0.5         0.5
 
  5) Fid. Vol. -X                10.0         8.9         0.5         0.5
 
  6) Fid. Vol. -Y                10.0         8.9         0.5         0.5
 
  7) Fid. Vol. -Z (OFF)          10.0         8.9         0.5         0.5
 
  8) At Least 1 Mu               10.0         8.9         0.5         0.5
 
  9) ncand=2,3,4                 10.0         8.9         0.5         0.5
 
 10) tnchgd=2                    10.0         8.9         0.5         0.5
 
 11) +/- Tracks (V0)              9.0         7.9         0.4         0.4
 
 12) Tube/Veto Cut                9.0         7.9         0.4         0.4
 
 13) 2 Muons (1mux)               9.0         7.9         0.4         0.4
 
 14) PmuAsym<0.0                  5.0         5.0         0.3         0.3
 
 15) Theta$<$2.62 rad             5.0         5.0         0.3         0.3
 
 16) Pt+wrt- $>$0.05              5.0         5.0         0.3         0.3
 
 17) Mee $>$ 2.0  (OFF)           5.0         5.0         0.3         0.3
 
 18) Upstream Hanger cut          5.0         5.0         0.3         0.3
 
 19) nsecond$<$4                  5.0         5.0         0.3         0.3
 
 20) Fid. Vol. Hanger cut         5.0         5.0         0.3         0.3
 
 21) No Hangers fromPVert         5.0         5.0         0.3         0.3
 
 22) Pz$>$0 for tracks            5.0         5.0         0.3         0.3
 
 23) Thprimord$<$0.4              3.0         3.0         0.2         0.2
 
 24) Nunh*fracunh$<$200           3.0         3.0         0.2         0.2
 
 25) V0 Cluster Cut               1.0         1.0         0.1         0.1
 
 26) Emumu$>$2GeV                 1.0         1.0         0.1         0.1
 
 27) P+,P-$>$0.5                  1.0         1.0         0.1         0.1
 
 28) P+,P-$>$1.0 (2.5mux)         1.0         1.0         0.1         0.1
 
 29) Emumu$>$5GeV  (8mux)         1.0         1.0         0.1         0.1
 
 30) Phi12$>$90deg  (OFF)         1.0         1.0         0.1         0.1
 
 ====================================================
 
